…
``` r
d_campaign_events$party[d_campaign_events$candidate %in% c("Trump / Pence", "Trump", "Pence", "Trump/Pence", "Vance")] <- "REP"
```

    ## Warning: Unknown or uninitialised column: `party`.

``` r
d_campaign_events$party[d_campaign_events$candidate %in% c("Biden / Harris", "Biden", "Harris", "Biden/Harris", "Walz", "Kaine", "Clinton", "Clinton / Kaine")] <- "DEM"

d_campaign_events
```

    ## # A tibble: 902 × 9
    ##    date       state city     candidate Event.Type  year latitude longitude party
    ##    <date>     <chr> <chr>    <chr>     <chr>      <dbl>    <dbl>     <dbl> <chr>
    ##  1 2016-07-25 VA    Roanoke  Trump / … Town Hall   2016     37.3     -79.9 REP  
    ##  2 2016-07-25 NC    Winston… Trump / … Rally/Spe…  2016     36.1     -80.2 REP  
    ##  3 2016-07-27 FL    Doral    Trump     Speech/Pr…  2016     25.8     -80.4 REP  
    ##  4 2016-07-27 PA    Scranton Trump / … Rally/Spe…  2016     41.4     -75.7 REP  
    ##  5 2016-07-27 WI    Waukesha Pence     Rally/Spe…  2016     43.0     -88.2 REP  
    ##  6 2016-07-27 OH    Toledo   Trump     Rally/Spe…  2016     41.7     -83.5 REP  
    ##  7 2016-07-28 MI    Grand R… Pence     Rally/Spe…  2016     43.0     -85.7 REP  
    ##  8 2016-07-28 MI    Novi     Pence     Rally/Spe…  2016     42.5     -83.5 REP  
    ##  9 2016-07-28 IA    Cedar R… Trump     Rally/Spe…  2016     42.0     -91.7 REP  
    ## 10 2016-07-28 IA    Davenpo… Trump     Rally/Spe…  2016     41.5     -90.6 REP  
    ## # ℹ 892 more rows
…
